%!PS-Adobe-3.0 EPSF-3.0 
%%BoundingBox: 0 0 315 222
%%Pages: 0
%%Creator: LibreOffice 4.2
%%Title: none
%%CreationDate: none
%%LanguageLevel: 2
%%EndComments
%%BeginProlog
%%BeginResource: procset SDRes-Prolog 1.0 0
/b4_inc_state save def
/dict_count countdictstack def
/op_count count 1 sub def
userdict begin
0 setgray 0 setlinecap 1 setlinewidth 0 setlinejoin 10 setmiterlimit[] 0 setdash newpath
/languagelevel where {pop languagelevel 1 ne {false setstrokeadjust false setoverprint} if} if
/bdef {bind def} bind def
/c {setrgbcolor} bdef
/l {neg lineto} bdef
/rl {neg rlineto} bdef
/lc {setlinecap} bdef
/lj {setlinejoin} bdef
/lw {setlinewidth} bdef
/ml {setmiterlimit} bdef
/ld {setdash} bdef
/m {neg moveto} bdef
/ct {6 2 roll neg 6 2 roll neg 6 2 roll neg curveto} bdef
/r {rotate} bdef
/t {neg translate} bdef
/s {scale} bdef
/sw {show} bdef
/gs {gsave} bdef
/gr {grestore} bdef
/f {findfont dup length dict begin
{1 index /FID ne {def} {pop pop} ifelse} forall /Encoding ISOLatin1Encoding def
currentdict end /NFont exch definefont pop /NFont findfont} bdef
/p {closepath} bdef
/sf {scalefont setfont} bdef
/ef {eofill}bdef
/pc {closepath stroke}bdef
/ps {stroke}bdef
/pum {matrix currentmatrix}bdef
/pom {setmatrix}bdef
/bs {/aString exch def /nXOfs exch def /nWidth exch def currentpoint nXOfs 0 rmoveto pum nWidth aString stringwidth pop div 1 scale aString show pom moveto} bdef
%%EndResource
%%EndProlog
%%BeginSetup
%%EndSetup
%%Page: 1 1
%%BeginPageSetup
%%EndPageSetup
pum
0.02831 0.02833 s 
0 -7836 t
/tm matrix currentmatrix def
tm setmatrix
-110 -4622 t 
1 1 s 
1.000 1.000 1.000 c 5672 12457 m  110 12457 l  110 4622 l  11234 4622 l 
11234 12457 l  5672 12457 l  p ef
0 lw 1 lj 0.703 0.703 0.703 c 6088 12102 m  1165 12102 l  1165 4977 l  11012 4977 l 
11012 12102 l  6088 12102 l  pc
11012 12101 m  1165 12101 l  ps
11012 10913 m  1165 10913 l  ps
11012 9725 m  1165 9725 l  ps
11012 8539 m  1165 8539 l  ps
11012 7351 m  1165 7351 l  ps
11012 6163 m  1165 6163 l  ps
11012 4976 m  1165 4976 l  ps
1165 8688 m  1165 8539 l  ps
1165 8688 m  1165 8539 l  ps
1657 8688 m  1657 8539 l  ps
1657 8688 m  1657 8539 l  ps
2149 8688 m  2149 8539 l  ps
2149 8688 m  2149 8539 l  ps
2642 8688 m  2642 8539 l  ps
2642 8688 m  2642 8539 l  ps
3134 8688 m  3134 8539 l  ps
3134 8688 m  3134 8539 l  ps
3627 8688 m  3627 8539 l  ps
3627 8688 m  3627 8539 l  ps
4119 8688 m  4119 8539 l  ps
4119 8688 m  4119 8539 l  ps
4611 8688 m  4611 8539 l  ps
4611 8688 m  4611 8539 l  ps
5104 8688 m  5104 8539 l  ps
5104 8688 m  5104 8539 l  ps
5596 8688 m  5596 8539 l  ps
5596 8688 m  5596 8539 l  ps
6088 8688 m  6088 8539 l  ps
6088 8688 m  6088 8539 l  ps
6580 8688 m  6580 8539 l  ps
6580 8688 m  6580 8539 l  ps
7072 8688 m  7072 8539 l  ps
7072 8688 m  7072 8539 l  ps
7565 8688 m  7565 8539 l  ps
7565 8688 m  7565 8539 l  ps
8057 8688 m  8057 8539 l  ps
8057 8688 m  8057 8539 l  ps
8550 8688 m  8550 8539 l  ps
8550 8688 m  8550 8539 l  ps
9042 8688 m  9042 8539 l  ps
9042 8688 m  9042 8539 l  ps
9534 8688 m  9534 8539 l  ps
9534 8688 m  9534 8539 l  ps
10027 8688 m  10027 8539 l  ps
10027 8688 m  10027 8539 l  ps
10519 8688 m  10519 8539 l  ps
10519 8688 m  10519 8539 l  ps
11012 8688 m  11012 8539 l  ps
11012 8688 m  11012 8539 l  ps
1165 8539 m  11012 8539 l  ps
1015 12101 m  1165 12101 l  ps
1015 12101 m  1165 12101 l  ps
1015 10913 m  1165 10913 l  ps
1015 10913 m  1165 10913 l  ps
1015 9725 m  1165 9725 l  ps
1015 9725 m  1165 9725 l  ps
1015 8539 m  1165 8539 l  ps
1015 8539 m  1165 8539 l  ps
1015 7351 m  1165 7351 l  ps
1015 7351 m  1165 7351 l  ps
1015 6163 m  1165 6163 l  ps
1015 6163 m  1165 6163 l  ps
1015 4976 m  1165 4976 l  ps
1015 4976 m  1165 4976 l  ps
1165 12101 m  1165 4976 l  ps
0.003 0.273 0.527 c 10642 8539 m  10888 8539 l  10888 7392 l  10642 7392 l 
10642 8539 l  p ef
10150 9221 m  10396 9221 l  10396 8539 l  10150 8539 l  10150 9221 l  p ef
9657 9383 m  9904 9383 l  9904 8539 l  9657 8539 l  9657 9383 l  p ef
9165 8539 m  9411 8539 l  9411 8229 l  9165 8229 l  9165 8539 l  p ef
8673 8539 m  8919 8539 l  8919 8312 l  8673 8312 l  8673 8539 l  p ef
8180 11152 m  8426 11152 l  8426 8539 l  8180 8539 l  8180 11152 l  p ef
7688 10623 m  7934 10623 l  7934 8539 l  7688 8539 l  7688 10623 l  p ef
7195 10673 m  7442 10673 l  7442 8539 l  7195 8539 l  7195 10673 l  p ef
6703 10585 m  6949 10585 l  6949 8539 l  6703 8539 l  6703 10585 l  p ef
6211 8539 m  6457 8539 l  6457 8341 l  6211 8341 l  6211 8539 l  p ef
5718 10387 m  5964 10387 l  5964 8539 l  5718 8539 l  5718 10387 l  p ef
5227 8539 m  5473 8539 l  5473 8502 l  5227 8502 l  5227 8539 l  p ef
4734 8539 m  4981 8539 l  4981 8300 l  4734 8300 l  4734 8539 l  p ef
4242 8539 m  4488 8539 l  4488 7723 l  4242 7723 l  4242 8539 l  p ef
3750 8539 m  3996 8539 l  3996 7490 l  3750 7490 l  3750 8539 l  p ef
3257 8539 m  3503 8539 l  3503 7183 l  3257 7183 l  3257 8539 l  p ef
2765 8539 m  3011 8539 l  3011 6440 l  2765 6440 l  2765 8539 l  p ef
2272 8539 m  2519 8539 l  2519 6262 l  2272 6262 l  2272 8539 l  p ef
1780 8539 m  2026 8539 l  2026 7039 l  1780 7039 l  1780 8539 l  p ef
1288 9179 m  1534 9179 l  1534 8539 l  1288 8539 l  1288 9179 l  p ef
pum
1318 9106 t
0.003 0.003 0.003 c 27 0 m  27 -26 l  89 -26 l  89 -213 l  34 -174 l  34 -204 l 
91 -243 l  120 -243 l  120 -26 l  179 -26 l  179 0 l  27 0 l  p ef
pom
pum
1810 9106 t
18 0 m  18 -22 l  24 -35 31 -47 39 -58 ct 48 -68 57 -77 66 -85 ct 75 -94 84 -101 94 -109 ct 
103 -116 111 -123 118 -130 ct 126 -137 132 -145 136 -152 ct 141 -160 143 -169 143 -179 ct 
143 -186 142 -192 140 -197 ct 138 -202 135 -207 131 -210 ct 127 -214 122 -217 117 -218 ct 
111 -220 105 -221 99 -221 ct 92 -221 87 -220 81 -218 ct 76 -217 71 -214 67 -211 ct 
62 -207 59 -203 56 -198 ct 53 -193 52 -187 51 -180 ct 19 -183 l  20 -192 23 -200 26 -208 ct 
30 -215 35 -222 42 -228 ct 49 -234 57 -238 66 -242 ct 75 -245 86 -247 99 -247 ct 
111 -247 121 -245 131 -242 ct 140 -239 148 -235 155 -229 ct 161 -224 166 -217 170 -209 ct 
173 -200 175 -191 175 -180 ct 175 -172 173 -164 170 -157 ct 167 -149 164 -142 159 -136 ct 
154 -129 148 -123 142 -116 ct 135 -110 129 -104 122 -98 ct 115 -92 107 -86 100 -81 ct 
93 -75 87 -69 80 -63 ct 74 -57 68 -51 63 -45 ct 58 -39 55 -33 52 -26 ct 179 -26 l 
179 0 l  18 0 l  p ef
pom
pum
2303 9106 t
181 -68 m  181 -57 179 -47 175 -38 ct 172 -29 166 -22 160 -16 ct 153 -10 144 -5 134 -2 ct 
123 1 112 3 98 3 ct 83 3 71 1 60 -3 ct 50 -6 42 -11 35 -17 ct 28 -24 23 -31 20 -39 ct 
17 -46 14 -55 13 -63 ct 46 -66 l  46 -60 48 -54 51 -48 ct 53 -43 56 -38 61 -35 ct 
65 -31 70 -28 76 -26 ct 83 -24 90 -23 98 -23 ct 114 -23 126 -27 135 -34 ct 144 -42 149 -54 149 -69 ct 
149 -78 147 -85 143 -90 ct 139 -96 134 -100 128 -103 ct 122 -106 115 -108 109 -109 ct 
102 -110 95 -111 89 -111 ct 72 -111 l  72 -138 l  89 -138 l  94 -138 101 -139 107 -140 ct 
113 -141 119 -143 124 -146 ct 129 -149 134 -154 137 -159 ct 141 -164 142 -171 142 -180 ct 
142 -193 138 -203 131 -210 ct 123 -218 112 -221 97 -221 ct 83 -221 72 -218 64 -211 ct 
55 -204 50 -194 49 -182 ct 18 -184 l  19 -195 22 -204 26 -212 ct 31 -220 37 -226 44 -231 ct 
51 -237 59 -241 68 -243 ct 77 -246 87 -247 97 -247 ct 111 -247 122 -245 132 -242 ct 
142 -239 150 -234 156 -228 ct 162 -222 167 -216 170 -208 ct 173 -200 174 -192 174 -183 ct 
174 -176 173 -169 171 -163 ct 169 -157 166 -151 162 -146 ct 158 -141 153 -137 146 -134 ct 
140 -130 132 -127 123 -125 ct 123 -125 l  133 -124 142 -122 149 -118 ct 156 -115 162 -111 167 -105 ct 
171 -100 175 -95 177 -88 ct 180 -82 181 -75 181 -68 ct p ef
pom
pum
2795 9106 t
152 -55 m  152 0 l  123 0 l  123 -55 l  8 -55 l  8 -79 l  119 -243 l  152 -243 l 
152 -79 l  186 -79 l  186 -55 l  152 -55 l  p
123 -208 m  122 -207 122 -206 121 -205 ct 120 -203 119 -201 118 -199 ct 117 -197 115 -195 114 -193 ct 
113 -191 112 -189 111 -187 ct 49 -96 l  48 -95 47 -94 46 -92 ct 45 -91 44 -89 43 -88 ct 
42 -86 41 -84 39 -83 ct 38 -81 37 -80 37 -79 ct 123 -79 l  123 -208 l  p ef
pom
pum
3287 9106 t
182 -80 m  182 -67 180 -56 176 -46 ct 172 -36 167 -27 160 -20 ct 152 -13 143 -7 133 -3 ct 
122 1 109 3 95 3 ct 83 3 71 1 62 -1 ct 52 -4 44 -9 38 -14 ct 31 -19 26 -25 22 -32 ct 
18 -39 16 -47 14 -55 ct 46 -58 l  47 -54 49 -49 51 -45 ct 53 -41 56 -37 60 -33 ct 
64 -30 69 -27 75 -25 ct 81 -23 88 -22 96 -22 ct 104 -22 111 -24 118 -26 ct 124 -29 130 -32 135 -37 ct 
139 -42 143 -48 145 -55 ct 148 -62 149 -70 149 -79 ct 149 -86 148 -93 146 -99 ct 
143 -106 140 -111 135 -116 ct 131 -120 125 -124 119 -126 ct 112 -129 105 -130 97 -130 ct 
92 -130 87 -130 82 -129 ct 78 -128 74 -126 70 -125 ct 67 -123 63 -121 60 -119 ct 
57 -117 54 -115 52 -113 ct 21 -113 l  29 -243 l  167 -243 l  167 -217 l  58 -217 l 
53 -140 l  58 -144 65 -148 74 -151 ct 82 -154 92 -155 103 -155 ct 115 -155 126 -154 136 -150 ct 
145 -146 154 -141 160 -134 ct 167 -128 172 -120 176 -110 ct 180 -101 182 -91 182 -80 ct 
p ef
pom
pum
3780 9106 t
181 -80 m  181 -68 179 -57 176 -47 ct 172 -36 167 -28 161 -20 ct 154 -13 146 -7 136 -3 ct 
126 1 115 3 102 3 ct 88 3 76 0 65 -5 ct 55 -11 46 -18 39 -28 ct 32 -39 27 -51 23 -66 ct 
20 -81 18 -97 18 -116 ct 18 -138 20 -157 24 -173 ct 28 -190 34 -203 41 -214 ct 
48 -225 58 -233 68 -239 ct 79 -244 91 -247 105 -247 ct 113 -247 121 -246 128 -244 ct 
135 -243 142 -240 148 -236 ct 154 -232 159 -227 163 -221 ct 168 -215 171 -207 174 -198 ct 
144 -192 l  141 -203 136 -210 129 -215 ct 122 -220 114 -222 104 -222 ct 96 -222 88 -220 81 -216 ct 
74 -212 69 -206 64 -198 ct 59 -190 55 -180 53 -168 ct 50 -156 49 -142 49 -126 ct 
54 -136 62 -144 73 -150 ct 83 -155 95 -158 108 -158 ct 119 -158 129 -156 138 -153 ct 
147 -149 154 -144 161 -137 ct 167 -130 172 -122 176 -113 ct 179 -103 181 -92 181 -80 ct 
p
149 -79 m  149 -87 148 -95 146 -102 ct 144 -108 141 -114 137 -119 ct 133 -124 128 -128 122 -130 ct 
115 -133 108 -134 100 -134 ct 95 -134 89 -133 83 -131 ct 78 -130 72 -127 68 -123 ct 
63 -120 59 -115 56 -109 ct 53 -102 52 -95 52 -86 ct 52 -77 53 -69 55 -61 ct 58 -53 61 -46 65 -41 ct 
70 -35 75 -30 81 -27 ct 87 -24 94 -22 101 -22 ct 109 -22 116 -23 121 -26 ct 127 -29 132 -32 137 -37 ct 
141 -42 144 -48 146 -55 ct 148 -62 149 -70 149 -79 ct p ef
pom
pum
4272 9106 t
179 -218 m  166 -200 155 -182 145 -165 ct 135 -147 126 -130 119 -113 ct 111 -95 106 -77 101 -59 ct 
97 -41 95 -21 95 -1 ct 63 -1 l  63 -20 65 -39 70 -58 ct 74 -76 81 -95 88 -113 ct 
96 -131 105 -148 116 -166 ct 126 -183 137 -200 149 -217 ct 18 -217 l  18 -243 l 
179 -243 l  179 -218 l  p ef
pom
pum
4765 9106 t
181 -68 m  181 -58 179 -48 176 -40 ct 173 -31 168 -24 161 -17 ct 154 -11 146 -6 135 -2 ct 
125 1 113 3 98 3 ct 84 3 72 1 61 -2 ct 51 -6 42 -11 35 -17 ct 29 -23 24 -31 20 -40 ct 
17 -48 15 -58 15 -68 ct 15 -77 17 -85 19 -92 ct 22 -98 26 -104 30 -109 ct 35 -114 40 -118 46 -121 ct 
52 -125 58 -127 64 -128 ct 64 -128 l  57 -130 51 -132 46 -136 ct 40 -140 36 -144 32 -149 ct 
29 -154 26 -159 24 -166 ct 22 -172 21 -178 21 -185 ct 21 -193 23 -201 26 -209 ct 
29 -216 34 -223 41 -229 ct 47 -234 55 -239 64 -242 ct 74 -245 85 -247 98 -247 ct 
111 -247 122 -245 132 -242 ct 142 -239 150 -234 156 -228 ct 162 -223 167 -216 170 -209 ct 
173 -201 175 -193 175 -184 ct 175 -178 174 -171 172 -165 ct 170 -159 167 -154 164 -149 ct 
160 -144 156 -139 150 -136 ct 145 -132 139 -130 132 -129 ct 132 -128 l  139 -127 145 -125 151 -122 ct 
157 -119 162 -115 167 -110 ct 171 -105 175 -99 177 -92 ct 180 -85 181 -77 181 -68 ct 
p
143 -183 m  143 -189 142 -194 140 -199 ct 139 -204 136 -209 133 -212 ct 129 -216 125 -219 119 -221 ct 
113 -223 106 -224 98 -224 ct 89 -224 83 -223 77 -221 ct 71 -219 67 -216 63 -212 ct 
59 -209 57 -204 55 -199 ct 54 -194 53 -189 53 -183 ct 53 -178 53 -173 55 -168 ct 
56 -163 58 -158 62 -154 ct 65 -150 69 -147 75 -144 ct 81 -141 89 -140 98 -140 ct 
108 -140 116 -141 121 -144 ct 127 -147 132 -150 135 -154 ct 138 -158 140 -163 141 -168 ct 
142 -173 143 -178 143 -183 ct p
149 -71 m  149 -77 148 -83 146 -88 ct 145 -94 142 -98 138 -103 ct 134 -107 129 -110 122 -113 ct 
116 -115 107 -117 98 -117 ct 88 -117 81 -115 74 -113 ct 68 -110 63 -107 59 -103 ct 
55 -98 52 -93 50 -88 ct 48 -82 47 -76 47 -70 ct 47 -63 48 -56 50 -50 ct 52 -44 55 -39 59 -34 ct 
63 -30 68 -26 75 -24 ct 81 -21 89 -20 99 -20 ct 108 -20 116 -21 122 -24 ct 129 -26 134 -30 138 -34 ct 
142 -39 145 -44 146 -50 ct 148 -56 149 -63 149 -71 ct p ef
pom
pum
5257 9106 t
180 -127 m  180 -105 178 -86 173 -70 ct 169 -54 164 -40 156 -29 ct 148 -19 139 -11 128 -5 ct 
117 0 105 3 92 3 ct 82 3 74 2 67 0 ct 59 -2 52 -5 47 -9 ct 41 -13 36 -18 32 -24 ct 
27 -31 24 -39 22 -48 ct 51 -52 l  54 -42 59 -34 66 -29 ct 73 -24 82 -22 92 -22 ct 
101 -22 108 -24 115 -28 ct 122 -32 128 -38 133 -46 ct 138 -54 142 -64 144 -76 ct 
147 -88 149 -102 149 -118 ct 147 -112 143 -108 139 -103 ct 135 -99 130 -95 125 -93 ct 
119 -90 114 -87 107 -86 ct 101 -84 95 -84 89 -84 ct 78 -84 68 -86 59 -89 ct 50 -93 42 -99 36 -106 ct 
30 -113 25 -122 22 -132 ct 18 -142 17 -153 17 -165 ct 17 -178 18 -189 22 -199 ct 
26 -209 31 -218 38 -225 ct 45 -232 53 -238 63 -241 ct 73 -245 85 -247 97 -247 ct 
124 -247 145 -237 159 -217 ct 173 -197 180 -167 180 -127 ct p
146 -157 m  146 -166 145 -174 143 -182 ct 141 -190 137 -197 133 -203 ct 129 -209 124 -213 118 -217 ct 
112 -220 104 -222 96 -222 ct 89 -222 82 -221 76 -218 ct 70 -215 65 -211 61 -207 ct 
57 -202 54 -196 51 -189 ct 49 -182 48 -174 48 -165 ct 48 -157 49 -150 51 -143 ct 
53 -136 56 -130 60 -124 ct 64 -119 69 -115 75 -112 ct 81 -109 88 -108 96 -108 ct 
102 -108 108 -109 114 -111 ct 119 -113 125 -116 130 -120 ct 134 -124 138 -129 141 -135 ct 
144 -141 146 -149 146 -157 ct p ef
pom
pum
5657 9106 t
27 0 m  27 -26 l  89 -26 l  89 -213 l  34 -174 l  34 -204 l  91 -243 l 
120 -243 l  120 -26 l  179 -26 l  179 0 l  27 0 l  p ef
368 -122 m  368 -99 365 -79 361 -63 ct 356 -47 350 -34 343 -25 ct 335 -15 326 -8 316 -3 ct 
305 1 294 3 283 3 ct 271 3 260 1 250 -3 ct 239 -8 231 -15 223 -24 ct 215 -34 210 -47 205 -63 ct 
201 -79 199 -99 199 -122 ct 199 -146 201 -167 205 -183 ct 210 -199 216 -212 223 -221 ct 
231 -231 240 -237 250 -241 ct 260 -245 272 -247 284 -247 ct 295 -247 306 -245 316 -241 ct 
327 -237 335 -231 343 -221 ct 351 -212 357 -199 361 -183 ct 365 -167 368 -146 368 -122 ct 
p
336 -122 m  336 -141 335 -157 333 -170 ct 330 -183 327 -193 322 -201 ct 318 -209 312 -214 306 -217 ct 
299 -220 292 -222 284 -222 ct 275 -222 267 -220 261 -217 ct 254 -214 248 -208 244 -201 ct 
239 -193 236 -183 234 -170 ct 231 -157 230 -141 230 -122 ct 230 -103 231 -88 234 -75 ct 
236 -62 239 -52 244 -44 ct 249 -36 254 -31 261 -27 ct 267 -24 275 -22 283 -22 ct 
291 -22 299 -24 305 -27 ct 312 -31 317 -36 322 -44 ct 326 -52 330 -62 332 -75 ct 
335 -88 336 -103 336 -122 ct p ef
pom
pum
6150 9106 t
27 0 m  27 -26 l  89 -26 l  89 -213 l  34 -174 l  34 -204 l  91 -243 l 
120 -243 l  120 -26 l  179 -26 l  179 0 l  27 0 l  p ef
212 0 m  212 -26 l  274 -26 l  274 -213 l  219 -174 l  219 -204 l  276 -243 l 
305 -243 l  305 -26 l  364 -26 l  364 0 l  212 0 l  p ef
pom
pum
6642 9106 t
27 0 m  27 -26 l  89 -26 l  89 -213 l  34 -174 l  34 -204 l  91 -243 l 
120 -243 l  120 -26 l  179 -26 l  179 0 l  27 0 l  p ef
203 0 m  203 -22 l  209 -35 216 -47 224 -58 ct 233 -68 242 -77 251 -85 ct 260 -94 269 -101 279 -109 ct 
288 -116 296 -123 303 -130 ct 311 -137 317 -145 321 -152 ct 326 -160 328 -169 328 -179 ct 
328 -186 327 -192 325 -197 ct 323 -202 320 -207 316 -210 ct 312 -214 307 -217 302 -218 ct 
296 -220 290 -221 284 -221 ct 277 -221 272 -220 266 -218 ct 261 -217 256 -214 252 -211 ct 
247 -207 244 -203 241 -198 ct 238 -193 237 -187 236 -180 ct 204 -183 l  205 -192 208 -200 211 -208 ct 
215 -215 220 -222 227 -228 ct 234 -234 242 -238 251 -242 ct 260 -245 271 -247 284 -247 ct 
296 -247 306 -245 316 -242 ct 325 -239 333 -235 340 -229 ct 346 -224 351 -217 355 -209 ct 
358 -200 360 -191 360 -180 ct 360 -172 358 -164 355 -157 ct 352 -149 349 -142 344 -136 ct 
339 -129 333 -123 327 -116 ct 320 -110 314 -104 307 -98 ct 300 -92 292 -86 285 -81 ct 
278 -75 272 -69 265 -63 ct 259 -57 253 -51 248 -45 ct 243 -39 240 -33 237 -26 ct 
364 -26 l  364 0 l  203 0 l  p ef
pom
pum
7135 9106 t
27 0 m  27 -26 l  89 -26 l  89 -213 l  34 -174 l  34 -204 l  91 -243 l 
120 -243 l  120 -26 l  179 -26 l  179 0 l  27 0 l  p ef
366 -68 m  366 -57 364 -47 360 -38 ct 357 -29 351 -22 345 -16 ct 338 -10 329 -5 319 -2 ct 
308 1 297 3 283 3 ct 268 3 256 1 245 -3 ct 235 -6 227 -11 220 -17 ct 213 -24 208 -31 205 -39 ct 
202 -46 199 -55 198 -63 ct 231 -66 l  231 -60 233 -54 236 -48 ct 238 -43 241 -38 246 -35 ct 
250 -31 255 -28 261 -26 ct 268 -24 275 -23 283 -23 ct 299 -23 311 -27 320 -34 ct 
329 -42 334 -54 334 -69 ct 334 -78 332 -85 328 -90 ct 324 -96 319 -100 313 -103 ct 
307 -106 300 -108 294 -109 ct 287 -110 280 -111 274 -111 ct 257 -111 l  257 -138 l 
274 -138 l  279 -138 286 -139 292 -140 ct 298 -141 304 -143 309 -146 ct 314 -149 319 -154 322 -159 ct 
326 -164 327 -171 327 -180 ct 327 -193 323 -203 316 -210 ct 308 -218 297 -221 282 -221 ct 
268 -221 257 -218 249 -211 ct 240 -204 235 -194 234 -182 ct 203 -184 l  204 -195 207 -204 211 -212 ct 
216 -220 222 -226 229 -231 ct 236 -237 244 -241 253 -243 ct 262 -246 272 -247 282 -247 ct 
296 -247 307 -245 317 -242 ct 327 -239 335 -234 341 -228 ct 347 -222 352 -216 355 -208 ct 
358 -200 359 -192 359 -183 ct 359 -176 358 -169 356 -163 ct 354 -157 351 -151 347 -146 ct 
343 -141 338 -137 331 -134 ct 325 -130 317 -127 308 -125 ct 308 -125 l  318 -124 327 -122 334 -118 ct 
341 -115 347 -111 352 -105 ct 356 -100 360 -95 362 -88 ct 365 -82 366 -75 366 -68 ct 
p ef
pom
pum
7627 9106 t
27 0 m  27 -26 l  89 -26 l  89 -213 l  34 -174 l  34 -204 l  91 -243 l 
120 -243 l  120 -26 l  179 -26 l  179 0 l  27 0 l  p ef
337 -55 m  337 0 l  308 0 l  308 -55 l  193 -55 l  193 -79 l  304 -243 l 
337 -243 l  337 -79 l  371 -79 l  371 -55 l  337 -55 l  p
308 -208 m  307 -207 307 -206 306 -205 ct 305 -203 304 -201 303 -199 ct 302 -197 300 -195 299 -193 ct 
298 -191 297 -189 296 -187 ct 234 -96 l  233 -95 232 -94 231 -92 ct 230 -91 229 -89 228 -88 ct 
227 -86 226 -84 224 -83 ct 223 -81 222 -80 222 -79 ct 308 -79 l  308 -208 l 
p ef
pom
pum
8119 9106 t
27 0 m  27 -26 l  89 -26 l  89 -213 l  34 -174 l  34 -204 l  91 -243 l 
120 -243 l  120 -26 l  179 -26 l  179 0 l  27 0 l  p ef
367 -80 m  367 -67 365 -56 361 -46 ct 357 -36 352 -27 345 -20 ct 337 -13 328 -7 318 -3 ct 
307 1 294 3 280 3 ct 268 3 256 1 247 -1 ct 237 -4 229 -9 223 -14 ct 216 -19 211 -25 207 -32 ct 
203 -39 201 -47 199 -55 ct 231 -58 l  232 -54 234 -49 236 -45 ct 238 -41 241 -37 245 -33 ct 
249 -30 254 -27 260 -25 ct 266 -23 273 -22 281 -22 ct 289 -22 296 -24 303 -26 ct 
309 -29 315 -32 320 -37 ct 324 -42 328 -48 330 -55 ct 333 -62 334 -70 334 -79 ct 
334 -86 333 -93 331 -99 ct 328 -106 325 -111 320 -116 ct 316 -120 310 -124 304 -126 ct 
297 -129 290 -130 282 -130 ct 277 -130 272 -130 267 -129 ct 263 -128 259 -126 255 -125 ct 
252 -123 248 -121 245 -119 ct 242 -117 239 -115 237 -113 ct 206 -113 l  214 -243 l 
352 -243 l  352 -217 l  243 -217 l  238 -140 l  243 -144 250 -148 259 -151 ct 
267 -154 277 -155 288 -155 ct 300 -155 311 -154 321 -150 ct 330 -146 339 -141 345 -134 ct 
352 -128 357 -120 361 -110 ct 365 -101 367 -91 367 -80 ct p ef
pom
pum
8612 9106 t
27 0 m  27 -26 l  89 -26 l  89 -213 l  34 -174 l  34 -204 l  91 -243 l 
120 -243 l  120 -26 l  179 -26 l  179 0 l  27 0 l  p ef
366 -80 m  366 -68 364 -57 361 -47 ct 357 -36 352 -28 346 -20 ct 339 -13 331 -7 321 -3 ct 
311 1 300 3 287 3 ct 273 3 261 0 250 -5 ct 240 -11 231 -18 224 -28 ct 217 -39 212 -51 208 -66 ct 
205 -81 203 -97 203 -116 ct 203 -138 205 -157 209 -173 ct 213 -190 219 -203 226 -214 ct 
233 -225 243 -233 253 -239 ct 264 -244 276 -247 290 -247 ct 298 -247 306 -246 313 -244 ct 
320 -243 327 -240 333 -236 ct 339 -232 344 -227 348 -221 ct 353 -215 356 -207 359 -198 ct 
329 -192 l  326 -203 321 -210 314 -215 ct 307 -220 299 -222 289 -222 ct 281 -222 273 -220 266 -216 ct 
259 -212 254 -206 249 -198 ct 244 -190 240 -180 238 -168 ct 235 -156 234 -142 234 -126 ct 
239 -136 247 -144 258 -150 ct 268 -155 280 -158 293 -158 ct 304 -158 314 -156 323 -153 ct 
332 -149 339 -144 346 -137 ct 352 -130 357 -122 361 -113 ct 364 -103 366 -92 366 -80 ct 
p
334 -79 m  334 -87 333 -95 331 -102 ct 329 -108 326 -114 322 -119 ct 318 -124 313 -128 307 -130 ct 
300 -133 293 -134 285 -134 ct 280 -134 274 -133 268 -131 ct 263 -130 257 -127 253 -123 ct 
248 -120 244 -115 241 -109 ct 238 -102 237 -95 237 -86 ct 237 -77 238 -69 240 -61 ct 
243 -53 246 -46 250 -41 ct 255 -35 260 -30 266 -27 ct 272 -24 279 -22 286 -22 ct 
294 -22 301 -23 306 -26 ct 312 -29 317 -32 322 -37 ct 326 -42 329 -48 331 -55 ct 
333 -62 334 -70 334 -79 ct p ef
pom
pum
9104 9106 t
27 0 m  27 -26 l  89 -26 l  89 -213 l  34 -174 l  34 -204 l  91 -243 l 
120 -243 l  120 -26 l  179 -26 l  179 0 l  27 0 l  p ef
364 -218 m  351 -200 340 -182 330 -165 ct 320 -147 311 -130 304 -113 ct 296 -95 291 -77 286 -59 ct 
282 -41 280 -21 280 -1 ct 248 -1 l  248 -20 250 -39 255 -58 ct 259 -76 266 -95 273 -113 ct 
281 -131 290 -148 301 -166 ct 311 -183 322 -200 334 -217 ct 203 -217 l  203 -243 l 
364 -243 l  364 -218 l  p ef
pom
pum
9597 9106 t
27 0 m  27 -26 l  89 -26 l  89 -213 l  34 -174 l  34 -204 l  91 -243 l 
120 -243 l  120 -26 l  179 -26 l  179 0 l  27 0 l  p ef
366 -68 m  366 -58 364 -48 361 -40 ct 358 -31 353 -24 346 -17 ct 339 -11 331 -6 320 -2 ct 
310 1 298 3 283 3 ct 269 3 257 1 246 -2 ct 236 -6 227 -11 220 -17 ct 214 -23 209 -31 205 -40 ct 
202 -48 200 -58 200 -68 ct 200 -77 202 -85 204 -92 ct 207 -98 211 -104 215 -109 ct 
220 -114 225 -118 231 -121 ct 237 -125 243 -127 249 -128 ct 249 -128 l  242 -130 236 -132 231 -136 ct 
225 -140 221 -144 217 -149 ct 214 -154 211 -159 209 -166 ct 207 -172 206 -178 206 -185 ct 
206 -193 208 -201 211 -209 ct 214 -216 219 -223 226 -229 ct 232 -234 240 -239 249 -242 ct 
259 -245 270 -247 283 -247 ct 296 -247 307 -245 317 -242 ct 327 -239 335 -234 341 -228 ct 
347 -223 352 -216 355 -209 ct 358 -201 360 -193 360 -184 ct 360 -178 359 -171 357 -165 ct 
355 -159 352 -154 349 -149 ct 345 -144 341 -139 335 -136 ct 330 -132 324 -130 317 -129 ct 
317 -128 l  324 -127 330 -125 336 -122 ct 342 -119 347 -115 352 -110 ct 356 -105 360 -99 362 -92 ct 
365 -85 366 -77 366 -68 ct p
328 -183 m  328 -189 327 -194 325 -199 ct 324 -204 321 -209 318 -212 ct 314 -216 310 -219 304 -221 ct 
298 -223 291 -224 283 -224 ct 274 -224 268 -223 262 -221 ct 256 -219 252 -216 248 -212 ct 
244 -209 242 -204 240 -199 ct 239 -194 238 -189 238 -183 ct 238 -178 238 -173 240 -168 ct 
241 -163 243 -158 247 -154 ct 250 -150 254 -147 260 -144 ct 266 -141 274 -140 283 -140 ct 
293 -140 301 -141 306 -144 ct 312 -147 317 -150 320 -154 ct 323 -158 325 -163 326 -168 ct 
327 -173 328 -178 328 -183 ct p
334 -71 m  334 -77 333 -83 331 -88 ct 330 -94 327 -98 323 -103 ct 319 -107 314 -110 307 -113 ct 
301 -115 292 -117 283 -117 ct 273 -117 266 -115 259 -113 ct 253 -110 248 -107 244 -103 ct 
240 -98 237 -93 235 -88 ct 233 -82 232 -76 232 -70 ct 232 -63 233 -56 235 -50 ct 
237 -44 240 -39 244 -34 ct 248 -30 253 -26 260 -24 ct 266 -21 274 -20 284 -20 ct 
293 -20 301 -21 307 -24 ct 314 -26 319 -30 323 -34 ct 327 -39 330 -44 331 -50 ct 
333 -56 334 -63 334 -71 ct p ef
pom
pum
10089 9106 t
27 0 m  27 -26 l  89 -26 l  89 -213 l  34 -174 l  34 -204 l  91 -243 l 
120 -243 l  120 -26 l  179 -26 l  179 0 l  27 0 l  p ef
365 -127 m  365 -105 363 -86 358 -70 ct 354 -54 349 -40 341 -29 ct 333 -19 324 -11 313 -5 ct 
302 0 290 3 277 3 ct 267 3 259 2 252 0 ct 244 -2 237 -5 232 -9 ct 226 -13 221 -18 217 -24 ct 
212 -31 209 -39 207 -48 ct 236 -52 l  239 -42 244 -34 251 -29 ct 258 -24 267 -22 277 -22 ct 
286 -22 293 -24 300 -28 ct 307 -32 313 -38 318 -46 ct 323 -54 327 -64 329 -76 ct 
332 -88 334 -102 334 -118 ct 332 -112 328 -108 324 -103 ct 320 -99 315 -95 310 -93 ct 
304 -90 299 -87 292 -86 ct 286 -84 280 -84 274 -84 ct 263 -84 253 -86 244 -89 ct 
235 -93 227 -99 221 -106 ct 215 -113 210 -122 207 -132 ct 203 -142 202 -153 202 -165 ct 
202 -178 203 -189 207 -199 ct 211 -209 216 -218 223 -225 ct 230 -232 238 -238 248 -241 ct 
258 -245 270 -247 282 -247 ct 309 -247 330 -237 344 -217 ct 358 -197 365 -167 365 -127 ct 
p
331 -157 m  331 -166 330 -174 328 -182 ct 326 -190 322 -197 318 -203 ct 314 -209 309 -213 303 -217 ct 
297 -220 289 -222 281 -222 ct 274 -222 267 -221 261 -218 ct 255 -215 250 -211 246 -207 ct 
242 -202 239 -196 236 -189 ct 234 -182 233 -174 233 -165 ct 233 -157 234 -150 236 -143 ct 
238 -136 241 -130 245 -124 ct 249 -119 254 -115 260 -112 ct 266 -109 273 -108 281 -108 ct 
287 -108 293 -109 299 -111 ct 304 -113 310 -116 315 -120 ct 319 -124 323 -129 326 -135 ct 
329 -141 331 -149 331 -157 ct p ef
pom
pum
10581 9106 t
18 0 m  18 -22 l  24 -35 31 -47 39 -58 ct 48 -68 57 -77 66 -85 ct 75 -94 84 -101 94 -109 ct 
103 -116 111 -123 118 -130 ct 126 -137 132 -145 136 -152 ct 141 -160 143 -169 143 -179 ct 
143 -186 142 -192 140 -197 ct 138 -202 135 -207 131 -210 ct 127 -214 122 -217 117 -218 ct 
111 -220 105 -221 99 -221 ct 92 -221 87 -220 81 -218 ct 76 -217 71 -214 67 -211 ct 
62 -207 59 -203 56 -198 ct 53 -193 52 -187 51 -180 ct 19 -183 l  20 -192 23 -200 26 -208 ct 
30 -215 35 -222 42 -228 ct 49 -234 57 -238 66 -242 ct 75 -245 86 -247 99 -247 ct 
111 -247 121 -245 131 -242 ct 140 -239 148 -235 155 -229 ct 161 -224 166 -217 170 -209 ct 
173 -200 175 -191 175 -180 ct 175 -172 173 -164 170 -157 ct 167 -149 164 -142 159 -136 ct 
154 -129 148 -123 142 -116 ct 135 -110 129 -104 122 -98 ct 115 -92 107 -86 100 -81 ct 
93 -75 87 -69 80 -63 ct 74 -57 68 -51 63 -45 ct 58 -39 55 -33 52 -26 ct 179 -26 l 
179 0 l  18 0 l  p ef
368 -122 m  368 -99 365 -79 361 -63 ct 356 -47 350 -34 343 -25 ct 335 -15 326 -8 316 -3 ct 
305 1 294 3 283 3 ct 271 3 260 1 250 -3 ct 239 -8 231 -15 223 -24 ct 215 -34 210 -47 205 -63 ct 
201 -79 199 -99 199 -122 ct 199 -146 201 -167 205 -183 ct 210 -199 216 -212 223 -221 ct 
231 -231 240 -237 250 -241 ct 260 -245 272 -247 284 -247 ct 295 -247 306 -245 316 -241 ct 
327 -237 335 -231 343 -221 ct 351 -212 357 -199 361 -183 ct 365 -167 368 -146 368 -122 ct 
p
336 -122 m  336 -141 335 -157 333 -170 ct 330 -183 327 -193 322 -201 ct 318 -209 312 -214 306 -217 ct 
299 -220 292 -222 284 -222 ct 275 -222 267 -220 261 -217 ct 254 -214 248 -208 244 -201 ct 
239 -193 236 -183 234 -170 ct 231 -157 230 -141 230 -122 ct 230 -103 231 -88 234 -75 ct 
236 -62 239 -52 244 -44 ct 249 -36 254 -31 261 -27 ct 267 -24 275 -22 283 -22 ct 
291 -22 299 -24 305 -27 ct 312 -31 317 -36 322 -44 ct 326 -52 330 -62 332 -75 ct 
335 -88 336 -103 336 -122 ct p ef
pom
pum
333 12222 t
16 -80 m  16 -108 l  102 -108 l  102 -80 l  16 -80 l  p ef
133 0 m  133 -26 l  195 -26 l  195 -213 l  140 -174 l  140 -204 l  197 -243 l 
226 -243 l  226 -26 l  285 -26 l  285 0 l  133 0 l  p ef
323 0 m  323 -38 l  357 -38 l  357 0 l  323 0 l  p ef
579 -80 m  579 -67 577 -56 573 -46 ct 569 -36 564 -27 557 -20 ct 549 -13 540 -7 530 -3 ct 
519 1 506 3 492 3 ct 480 3 468 1 459 -1 ct 449 -4 441 -9 435 -14 ct 428 -19 423 -25 419 -32 ct 
415 -39 413 -47 411 -55 ct 443 -58 l  444 -54 446 -49 448 -45 ct 450 -41 453 -37 457 -33 ct 
461 -30 466 -27 472 -25 ct 478 -23 485 -22 493 -22 ct 501 -22 508 -24 515 -26 ct 
521 -29 527 -32 532 -37 ct 536 -42 540 -48 542 -55 ct 545 -62 546 -70 546 -79 ct 
546 -86 545 -93 543 -99 ct 540 -106 537 -111 532 -116 ct 528 -120 522 -124 516 -126 ct 
509 -129 502 -130 494 -130 ct 489 -130 484 -130 479 -129 ct 475 -128 471 -126 467 -125 ct 
464 -123 460 -121 457 -119 ct 454 -117 451 -115 449 -113 ct 418 -113 l  426 -243 l 
564 -243 l  564 -217 l  455 -217 l  450 -140 l  455 -144 462 -148 471 -151 ct 
479 -154 489 -155 500 -155 ct 512 -155 523 -154 533 -150 ct 542 -146 551 -141 557 -134 ct 
564 -128 569 -120 573 -110 ct 577 -101 579 -91 579 -80 ct p ef
pom
pum
624 11034 t
16 -80 m  16 -108 l  102 -108 l  102 -80 l  16 -80 l  p ef
133 0 m  133 -26 l  195 -26 l  195 -213 l  140 -174 l  140 -204 l  197 -243 l 
226 -243 l  226 -26 l  285 -26 l  285 0 l  133 0 l  p ef
pom
pum
333 9846 t
16 -80 m  16 -108 l  102 -108 l  102 -80 l  16 -80 l  p ef
289 -122 m  289 -99 286 -79 282 -63 ct 277 -47 271 -34 264 -25 ct 256 -15 247 -8 237 -3 ct 
226 1 215 3 204 3 ct 192 3 181 1 171 -3 ct 160 -8 152 -15 144 -24 ct 136 -34 131 -47 126 -63 ct 
122 -79 120 -99 120 -122 ct 120 -146 122 -167 126 -183 ct 131 -199 137 -212 144 -221 ct 
152 -231 161 -237 171 -241 ct 181 -245 193 -247 205 -247 ct 216 -247 227 -245 237 -241 ct 
248 -237 256 -231 264 -221 ct 272 -212 278 -199 282 -183 ct 286 -167 289 -146 289 -122 ct 
p
257 -122 m  257 -141 256 -157 254 -170 ct 251 -183 248 -193 243 -201 ct 239 -209 233 -214 227 -217 ct 
220 -220 213 -222 205 -222 ct 196 -222 188 -220 182 -217 ct 175 -214 169 -208 165 -201 ct 
160 -193 157 -183 155 -170 ct 152 -157 151 -141 151 -122 ct 151 -103 152 -88 155 -75 ct 
157 -62 160 -52 165 -44 ct 170 -36 175 -31 182 -27 ct 188 -24 196 -22 204 -22 ct 
212 -22 220 -24 226 -27 ct 233 -31 238 -36 243 -44 ct 247 -52 251 -62 253 -75 ct 
256 -88 257 -103 257 -122 ct p ef
323 0 m  323 -38 l  357 -38 l  357 0 l  323 0 l  p ef
579 -80 m  579 -67 577 -56 573 -46 ct 569 -36 564 -27 557 -20 ct 549 -13 540 -7 530 -3 ct 
519 1 506 3 492 3 ct 480 3 468 1 459 -1 ct 449 -4 441 -9 435 -14 ct 428 -19 423 -25 419 -32 ct 
415 -39 413 -47 411 -55 ct 443 -58 l  444 -54 446 -49 448 -45 ct 450 -41 453 -37 457 -33 ct 
461 -30 466 -27 472 -25 ct 478 -23 485 -22 493 -22 ct 501 -22 508 -24 515 -26 ct 
521 -29 527 -32 532 -37 ct 536 -42 540 -48 542 -55 ct 545 -62 546 -70 546 -79 ct 
546 -86 545 -93 543 -99 ct 540 -106 537 -111 532 -116 ct 528 -120 522 -124 516 -126 ct 
509 -129 502 -130 494 -130 ct 489 -130 484 -130 479 -129 ct 475 -128 471 -126 467 -125 ct 
464 -123 460 -121 457 -119 ct 454 -117 451 -115 449 -113 ct 418 -113 l  426 -243 l 
564 -243 l  564 -217 l  455 -217 l  450 -140 l  455 -144 462 -148 471 -151 ct 
479 -154 489 -155 500 -155 ct 512 -155 523 -154 533 -150 ct 542 -146 551 -141 557 -134 ct 
564 -128 569 -120 573 -110 ct 577 -101 579 -91 579 -80 ct p ef
pom
pum
730 8659 t
183 -122 m  183 -99 180 -79 176 -63 ct 171 -47 165 -34 158 -25 ct 150 -15 141 -8 131 -3 ct 
120 1 109 3 98 3 ct 86 3 75 1 65 -3 ct 54 -8 46 -15 38 -24 ct 30 -34 25 -47 20 -63 ct 
16 -79 14 -99 14 -122 ct 14 -146 16 -167 20 -183 ct 25 -199 31 -212 38 -221 ct 
46 -231 55 -237 65 -241 ct 75 -245 87 -247 99 -247 ct 110 -247 121 -245 131 -241 ct 
142 -237 150 -231 158 -221 ct 166 -212 172 -199 176 -183 ct 180 -167 183 -146 183 -122 ct 
p
151 -122 m  151 -141 150 -157 148 -170 ct 145 -183 142 -193 137 -201 ct 133 -209 127 -214 121 -217 ct 
114 -220 107 -222 99 -222 ct 90 -222 82 -220 76 -217 ct 69 -214 63 -208 59 -201 ct 
54 -193 51 -183 49 -170 ct 46 -157 45 -141 45 -122 ct 45 -103 46 -88 49 -75 ct 
51 -62 54 -52 59 -44 ct 64 -36 69 -31 76 -27 ct 82 -24 90 -22 98 -22 ct 106 -22 114 -24 120 -27 ct 
127 -31 132 -36 137 -44 ct 141 -52 145 -62 147 -75 ct 150 -88 151 -103 151 -122 ct 
p ef
pom
pum
439 7471 t
183 -122 m  183 -99 180 -79 176 -63 ct 171 -47 165 -34 158 -25 ct 150 -15 141 -8 131 -3 ct 
120 1 109 3 98 3 ct 86 3 75 1 65 -3 ct 54 -8 46 -15 38 -24 ct 30 -34 25 -47 20 -63 ct 
16 -79 14 -99 14 -122 ct 14 -146 16 -167 20 -183 ct 25 -199 31 -212 38 -221 ct 
46 -231 55 -237 65 -241 ct 75 -245 87 -247 99 -247 ct 110 -247 121 -245 131 -241 ct 
142 -237 150 -231 158 -221 ct 166 -212 172 -199 176 -183 ct 180 -167 183 -146 183 -122 ct 
p
151 -122 m  151 -141 150 -157 148 -170 ct 145 -183 142 -193 137 -201 ct 133 -209 127 -214 121 -217 ct 
114 -220 107 -222 99 -222 ct 90 -222 82 -220 76 -217 ct 69 -214 63 -208 59 -201 ct 
54 -193 51 -183 49 -170 ct 46 -157 45 -141 45 -122 ct 45 -103 46 -88 49 -75 ct 
51 -62 54 -52 59 -44 ct 64 -36 69 -31 76 -27 ct 82 -24 90 -22 98 -22 ct 106 -22 114 -24 120 -27 ct 
127 -31 132 -36 137 -44 ct 141 -52 145 -62 147 -75 ct 150 -88 151 -103 151 -122 ct 
p ef
217 0 m  217 -38 l  251 -38 l  251 0 l  217 0 l  p ef
473 -80 m  473 -67 471 -56 467 -46 ct 463 -36 458 -27 451 -20 ct 443 -13 434 -7 424 -3 ct 
413 1 400 3 386 3 ct 374 3 362 1 353 -1 ct 343 -4 335 -9 329 -14 ct 322 -19 317 -25 313 -32 ct 
309 -39 307 -47 305 -55 ct 337 -58 l  338 -54 340 -49 342 -45 ct 344 -41 347 -37 351 -33 ct 
355 -30 360 -27 366 -25 ct 372 -23 379 -22 387 -22 ct 395 -22 402 -24 409 -26 ct 
415 -29 421 -32 426 -37 ct 430 -42 434 -48 436 -55 ct 439 -62 440 -70 440 -79 ct 
440 -86 439 -93 437 -99 ct 434 -106 431 -111 426 -116 ct 422 -120 416 -124 410 -126 ct 
403 -129 396 -130 388 -130 ct 383 -130 378 -130 373 -129 ct 369 -128 365 -126 361 -125 ct 
358 -123 354 -121 351 -119 ct 348 -117 345 -115 343 -113 ct 312 -113 l  320 -243 l 
458 -243 l  458 -217 l  349 -217 l  344 -140 l  349 -144 356 -148 365 -151 ct 
373 -154 383 -155 394 -155 ct 406 -155 417 -154 427 -150 ct 436 -146 445 -141 451 -134 ct 
458 -128 463 -120 467 -110 ct 471 -101 473 -91 473 -80 ct p ef
pom
pum
730 6283 t
27 0 m  27 -26 l  89 -26 l  89 -213 l  34 -174 l  34 -204 l  91 -243 l 
120 -243 l  120 -26 l  179 -26 l  179 0 l  27 0 l  p ef
pom
pum
439 5096 t
27 0 m  27 -26 l  89 -26 l  89 -213 l  34 -174 l  34 -204 l  91 -243 l 
120 -243 l  120 -26 l  179 -26 l  179 0 l  27 0 l  p ef
217 0 m  217 -38 l  251 -38 l  251 0 l  217 0 l  p ef
473 -80 m  473 -67 471 -56 467 -46 ct 463 -36 458 -27 451 -20 ct 443 -13 434 -7 424 -3 ct 
413 1 400 3 386 3 ct 374 3 362 1 353 -1 ct 343 -4 335 -9 329 -14 ct 322 -19 317 -25 313 -32 ct 
309 -39 307 -47 305 -55 ct 337 -58 l  338 -54 340 -49 342 -45 ct 344 -41 347 -37 351 -33 ct 
355 -30 360 -27 366 -25 ct 372 -23 379 -22 387 -22 ct 395 -22 402 -24 409 -26 ct 
415 -29 421 -32 426 -37 ct 430 -42 434 -48 436 -55 ct 439 -62 440 -70 440 -79 ct 
440 -86 439 -93 437 -99 ct 434 -106 431 -111 426 -116 ct 422 -120 416 -124 410 -126 ct 
403 -129 396 -130 388 -130 ct 383 -130 378 -130 373 -129 ct 369 -128 365 -126 361 -125 ct 
358 -123 354 -121 351 -119 ct 348 -117 345 -115 343 -113 ct 312 -113 l  320 -243 l 
458 -243 l  458 -217 l  349 -217 l  344 -140 l  349 -144 356 -148 365 -151 ct 
373 -154 383 -155 394 -155 ct 406 -155 417 -154 427 -150 ct 436 -146 445 -141 451 -134 ct 
458 -128 463 -120 467 -110 ct 471 -101 473 -91 473 -80 ct p ef
pom
0 7836 t 
pom
count op_count sub {pop} repeat countdictstack dict_count sub {end} repeat b4_inc_state restore
%%PageTrailer
%%Trailer
%%EOF
