%!PS-Adobe-3.0 EPSF-3.0 
%%BoundingBox: 0 0 453 255
%%Pages: 0
%%Creator: LibreOffice 4.2
%%Title: none
%%CreationDate: none
%%LanguageLevel: 2
%%EndComments
%%BeginProlog
%%BeginResource: procset SDRes-Prolog 1.0 0
/b4_inc_state save def
/dict_count countdictstack def
/op_count count 1 sub def
userdict begin
0 setgray 0 setlinecap 1 setlinewidth 0 setlinejoin 10 setmiterlimit[] 0 setdash newpath
/languagelevel where {pop languagelevel 1 ne {false setstrokeadjust false setoverprint} if} if
/bdef {bind def} bind def
/c {setrgbcolor} bdef
/l {neg lineto} bdef
/rl {neg rlineto} bdef
/lc {setlinecap} bdef
/lj {setlinejoin} bdef
/lw {setlinewidth} bdef
/ml {setmiterlimit} bdef
/ld {setdash} bdef
/m {neg moveto} bdef
/ct {6 2 roll neg 6 2 roll neg 6 2 roll neg curveto} bdef
/r {rotate} bdef
/t {neg translate} bdef
/s {scale} bdef
/sw {show} bdef
/gs {gsave} bdef
/gr {grestore} bdef
/f {findfont dup length dict begin
{1 index /FID ne {def} {pop pop} ifelse} forall /Encoding ISOLatin1Encoding def
currentdict end /NFont exch definefont pop /NFont findfont} bdef
/p {closepath} bdef
/sf {scalefont setfont} bdef
/ef {eofill}bdef
/pc {closepath stroke}bdef
/ps {stroke}bdef
/pum {matrix currentmatrix}bdef
/pom {setmatrix}bdef
/bs {/aString exch def /nXOfs exch def /nWidth exch def currentpoint nXOfs 0 rmoveto pum nWidth aString stringwidth pop div 1 scale aString show pom moveto} bdef
%%EndResource
%%EndProlog
%%BeginSetup
%%EndSetup
%%Page: 1 1
%%BeginPageSetup
%%EndPageSetup
pum
0.02831 0.02831 s 
0 -9005 t
/tm matrix currentmatrix def
tm setmatrix
-8756 -4436 t 
1 1 s 
1.000 1.000 1.000 c 16755 13440 m  8756 13440 l  8756 4436 l  24753 4436 l 
24753 13440 l  16755 13440 l  p ef
0 lw 1 lj 0.703 0.703 0.703 c 17171 13061 m  9908 13061 l  9908 4815 l 
24434 4815 l  24434 13061 l  17171 13061 l  pc
24434 13060 m  9908 13060 l  ps
24434 11685 m  9908 11685 l  ps
24434 10311 m  9908 10311 l  ps
24434 8937 m  9908 8937 l  ps
24434 7563 m  9908 7563 l  ps
24434 6188 m  9908 6188 l  ps
24434 4814 m  9908 4814 l  ps
9758 13060 m  9908 13060 l  ps
9758 13060 m  9908 13060 l  ps
9758 11685 m  9908 11685 l  ps
9758 11685 m  9908 11685 l  ps
9758 10311 m  9908 10311 l  ps
9758 10311 m  9908 10311 l  ps
9758 8937 m  9908 8937 l  ps
9758 8937 m  9908 8937 l  ps
9758 7563 m  9908 7563 l  ps
9758 7563 m  9908 7563 l  ps
9758 6188 m  9908 6188 l  ps
9758 6188 m  9908 6188 l  ps
9758 4814 m  9908 4814 l  ps
9758 4814 m  9908 4814 l  ps
9908 13060 m  9908 4814 l  ps
0.003 0.273 0.527 c 24343 8937 m  24403 8937 l  24403 8047 l  24343 8047 l 
24343 8937 l  p ef
24222 10608 m  24282 10608 l  24282 8937 l  24222 8937 l  24222 10608 l 
p ef
24101 8937 m  24161 8937 l  24161 6983 l  24101 6983 l  24101 8937 l  p ef
23980 10883 m  24040 10883 l  24040 8937 l  23980 8937 l  23980 10883 l 
p ef
23858 8937 m  23919 8937 l  23919 7559 l  23858 7559 l  23858 8937 l  p ef
23737 9049 m  23798 9049 l  23798 8937 l  23737 8937 l  23737 9049 l  p ef
23616 8937 m  23677 8937 l  23677 6069 l  23616 6069 l  23616 8937 l  p ef
23495 8937 m  23556 8937 l  23556 7564 l  23495 7564 l  23495 8937 l  p ef
23374 9302 m  23435 9302 l  23435 8937 l  23374 8937 l  23374 9302 l  p ef
23253 8937 m  23314 8937 l  23314 8877 l  23253 8877 l  23253 8937 l  p ef
23132 8937 m  23193 8937 l  23193 7769 l  23132 7769 l  23132 8937 l  p ef
23011 8937 m  23072 8937 l  23072 6354 l  23011 6354 l  23011 8937 l  p ef
22890 8937 m  22951 8937 l  22951 7594 l  22890 7594 l  22890 8937 l  p ef
22769 8937 m  22829 8937 l  22829 8006 l  22769 8006 l  22769 8937 l  p ef
22648 8937 m  22708 8937 l  22708 6893 l  22648 6893 l  22648 8937 l  p ef
22527 10058 m  22587 10058 l  22587 8937 l  22527 8937 l  22527 10058 l 
p ef
22406 8995 m  22466 8995 l  22466 8937 l  22406 8937 l  22406 8995 l  p ef
22285 8937 m  22345 8937 l  22345 7073 l  22285 7073 l  22285 8937 l  p ef
22164 9257 m  22224 9257 l  22224 8937 l  22164 8937 l  22164 9257 l  p ef
22043 8937 m  22103 8937 l  22103 6753 l  22043 6753 l  22043 8937 l  p ef
21922 8937 m  21982 8937 l  21982 7058 l  21922 7058 l  21922 8937 l  p ef
21800 8937 m  21861 8937 l  21861 6970 l  21800 6970 l  21800 8937 l  p ef
21679 8937 m  21740 8937 l  21740 7610 l  21679 7610 l  21679 8937 l  p ef
21558 8937 m  21619 8937 l  21619 6715 l  21558 6715 l  21558 8937 l  p ef
21437 10702 m  21498 10702 l  21498 8937 l  21437 8937 l  21437 10702 l 
p ef
21316 8937 m  21377 8937 l  21377 8585 l  21316 8585 l  21316 8937 l  p ef
21195 9580 m  21256 9580 l  21256 8937 l  21195 8937 l  21195 9580 l  p ef
21074 9929 m  21135 9929 l  21135 8937 l  21074 8937 l  21074 9929 l  p ef
20953 11671 m  21014 11671 l  21014 8937 l  20953 8937 l  20953 11671 l 
p ef
20832 10601 m  20893 10601 l  20893 8937 l  20832 8937 l  20832 10601 l 
p ef
20711 10885 m  20771 10885 l  20771 8937 l  20711 8937 l  20711 10885 l 
p ef
20590 9876 m  20650 9876 l  20650 8937 l  20590 8937 l  20590 9876 l  p ef
20469 10426 m  20529 10426 l  20529 8937 l  20469 8937 l  20469 10426 l 
p ef
20348 8937 m  20408 8937 l  20408 8628 l  20348 8628 l  20348 8937 l  p ef
20227 8937 m  20287 8937 l  20287 7674 l  20227 7674 l  20227 8937 l  p ef
20106 8937 m  20166 8937 l  20166 7830 l  20106 7830 l  20106 8937 l  p ef
19985 8937 m  20045 8937 l  20045 7485 l  19985 7485 l  19985 8937 l  p ef
19864 10735 m  19924 10735 l  19924 8937 l  19864 8937 l  19864 10735 l 
p ef
19742 10241 m  19803 10241 l  19803 8937 l  19742 8937 l  19742 10241 l 
p ef
19621 9050 m  19682 9050 l  19682 8937 l  19621 8937 l  19621 9050 l  p ef
19500 8937 m  19561 8937 l  19561 7138 l  19500 7138 l  19500 8937 l  p ef
19379 10623 m  19440 10623 l  19440 8937 l  19379 8937 l  19379 10623 l 
p ef
19258 8937 m  19319 8937 l  19319 6712 l  19258 6712 l  19258 8937 l  p ef
19137 8937 m  19198 8937 l  19198 6605 l  19137 6605 l  19137 8937 l  p ef
19016 9144 m  19077 9144 l  19077 8937 l  19016 8937 l  19016 9144 l  p ef
18895 10247 m  18956 10247 l  18956 8937 l  18895 8937 l  18895 10247 l 
p ef
18774 8937 m  18835 8937 l  18835 6655 l  18774 6655 l  18774 8937 l  p ef
18653 8937 m  18713 8937 l  18713 8575 l  18653 8575 l  18653 8937 l  p ef
18532 9595 m  18592 9595 l  18592 8937 l  18532 8937 l  18532 9595 l  p ef
18411 10705 m  18471 10705 l  18471 8937 l  18411 8937 l  18411 10705 l 
p ef
18290 8937 m  18350 8937 l  18350 6476 l  18290 6476 l  18290 8937 l  p ef
18169 8937 m  18229 8937 l  18229 7662 l  18169 7662 l  18169 8937 l  p ef
18048 8937 m  18108 8937 l  18108 8748 l  18048 8748 l  18048 8937 l  p ef
17927 8937 m  17987 8937 l  17987 6216 l  17927 6216 l  17927 8937 l  p ef
17806 10513 m  17866 10513 l  17866 8937 l  17806 8937 l  17806 10513 l 
p ef
17684 11485 m  17745 11485 l  17745 8937 l  17684 8937 l  17684 11485 l 
p ef
17563 8937 m  17624 8937 l  17624 8586 l  17563 8586 l  17563 8937 l  p ef
17442 9374 m  17503 9374 l  17503 8937 l  17442 8937 l  17442 9374 l  p ef
17321 11263 m  17382 11263 l  17382 8937 l  17321 8937 l  17321 11263 l 
p ef
17200 10113 m  17261 10113 l  17261 8937 l  17200 8937 l  17200 10113 l 
p ef
17079 8937 m  17140 8937 l  17140 7389 l  17079 7389 l  17079 8937 l  p ef
16958 8937 m  17019 8937 l  17019 6318 l  16958 6318 l  16958 8937 l  p ef
16837 9456 m  16898 9456 l  16898 8937 l  16837 8937 l  16837 9456 l  p ef
16717 9735 m  16777 9735 l  16777 8937 l  16717 8937 l  16717 9735 l  p ef
16596 8937 m  16657 8937 l  16657 7661 l  16596 7661 l  16596 8937 l  p ef
16475 8937 m  16535 8937 l  16535 7170 l  16475 7170 l  16475 8937 l  p ef
16354 10550 m  16414 10550 l  16414 8937 l  16354 8937 l  16354 10550 l 
p ef
16233 9761 m  16293 9761 l  16293 8937 l  16233 8937 l  16233 9761 l  p ef
16112 9996 m  16172 9996 l  16172 8937 l  16112 8937 l  16112 9996 l  p ef
15991 8937 m  16051 8937 l  16051 7584 l  15991 7584 l  15991 8937 l  p ef
15870 11062 m  15930 11062 l  15930 8937 l  15870 8937 l  15870 11062 l 
p ef
15749 8937 m  15809 8937 l  15809 8197 l  15749 8197 l  15749 8937 l  p ef
15628 10899 m  15688 10899 l  15688 8937 l  15628 8937 l  15628 10899 l 
p ef
15506 8937 m  15567 8937 l  15567 6148 l  15506 6148 l  15506 8937 l  p ef
15385 8937 m  15446 8937 l  15446 7771 l  15385 7771 l  15385 8937 l  p ef
15264 9857 m  15325 9857 l  15325 8937 l  15264 8937 l  15264 9857 l  p ef
15143 9021 m  15204 9021 l  15204 8937 l  15143 8937 l  15143 9021 l  p ef
15022 8937 m  15083 8937 l  15083 6269 l  15022 6269 l  15022 8937 l  p ef
14901 10477 m  14962 10477 l  14962 8937 l  14901 8937 l  14901 10477 l 
p ef
14780 11077 m  14841 11077 l  14841 8937 l  14780 8937 l  14780 11077 l 
p ef
14659 8937 m  14720 8937 l  14720 7803 l  14659 7803 l  14659 8937 l  p ef
14538 9505 m  14599 9505 l  14599 8937 l  14538 8937 l  14538 9505 l  p ef
14417 9434 m  14477 9434 l  14477 8937 l  14417 8937 l  14417 9434 l  p ef
14296 8937 m  14356 8937 l  14356 7993 l  14296 7993 l  14296 8937 l  p ef
14175 8937 m  14235 8937 l  14235 7249 l  14175 7249 l  14175 8937 l  p ef
14054 9213 m  14114 9213 l  14114 8937 l  14054 8937 l  14054 9213 l  p ef
13933 9355 m  13993 9355 l  13993 8937 l  13933 8937 l  13933 9355 l  p ef
13812 8937 m  13872 8937 l  13872 8533 l  13812 8533 l  13812 8937 l  p ef
13691 9999 m  13751 9999 l  13751 8937 l  13691 8937 l  13691 9999 l  p ef
13570 8937 m  13630 8937 l  13630 7473 l  13570 7473 l  13570 8937 l  p ef
13448 8937 m  13509 8937 l  13509 6721 l  13448 6721 l  13448 8937 l  p ef
13327 10739 m  13388 10739 l  13388 8937 l  13327 8937 l  13327 10739 l 
p ef
13206 8937 m  13267 8937 l  13267 6586 l  13206 6586 l  13206 8937 l  p ef
13085 9188 m  13146 9188 l  13146 8937 l  13085 8937 l  13085 9188 l  p ef
12964 8937 m  13025 8937 l  13025 7855 l  12964 7855 l  12964 8937 l  p ef
12843 8937 m  12904 8937 l  12904 6680 l  12843 6680 l  12843 8937 l  p ef
12722 9604 m  12783 9604 l  12783 8937 l  12722 8937 l  12722 9604 l  p ef
12601 9478 m  12662 9478 l  12662 8937 l  12601 8937 l  12601 9478 l  p ef
12480 11272 m  12541 11272 l  12541 8937 l  12480 8937 l  12480 11272 l 
p ef
12359 10601 m  12419 10601 l  12419 8937 l  12359 8937 l  12359 10601 l 
p ef
12238 11204 m  12298 11204 l  12298 8937 l  12238 8937 l  12238 11204 l 
p ef
12117 8937 m  12177 8937 l  12177 7327 l  12117 7327 l  12117 8937 l  p ef
11996 10417 m  12056 10417 l  12056 8937 l  11996 8937 l  11996 10417 l 
p ef
11875 9660 m  11935 9660 l  11935 8937 l  11875 8937 l  11875 9660 l  p ef
11754 8937 m  11814 8937 l  11814 6440 l  11754 6440 l  11754 8937 l  p ef
11633 11096 m  11693 11096 l  11693 8937 l  11633 8937 l  11633 11096 l 
p ef
11512 9668 m  11572 9668 l  11572 8937 l  11512 8937 l  11512 9668 l  p ef
11390 9132 m  11451 9132 l  11451 8937 l  11390 8937 l  11390 9132 l  p ef
11269 9851 m  11330 9851 l  11330 8937 l  11269 8937 l  11269 9851 l  p ef
11148 9147 m  11209 9147 l  11209 8937 l  11148 8937 l  11148 9147 l  p ef
11027 11629 m  11088 11629 l  11088 8937 l  11027 8937 l  11027 11629 l 
p ef
10906 9556 m  10967 9556 l  10967 8937 l  10906 8937 l  10906 9556 l  p ef
10785 8937 m  10846 8937 l  10846 8119 l  10785 8119 l  10785 8937 l  p ef
10664 8937 m  10725 8937 l  10725 6420 l  10664 6420 l  10664 8937 l  p ef
10543 10137 m  10604 10137 l  10604 8937 l  10543 8937 l  10543 10137 l 
p ef
10422 10905 m  10483 10905 l  10483 8937 l  10422 8937 l  10422 10905 l 
p ef
10301 8937 m  10361 8937 l  10361 7860 l  10301 7860 l  10301 8937 l  p ef
10180 8937 m  10240 8937 l  10240 8108 l  10180 8108 l  10180 8937 l  p ef
10059 11303 m  10119 11303 l  10119 8937 l  10059 8937 l  10059 11303 l 
p ef
9938 8937 m  9998 8937 l  9998 8048 l  9938 8048 l  9938 8937 l  p ef
pum
9076 13181 t
0.003 0.003 0.003 c 16 -80 m  16 -108 l  102 -108 l  102 -80 l  16 -80 l  p ef
133 0 m  133 -26 l  195 -26 l  195 -213 l  140 -174 l  140 -204 l  197 -243 l 
226 -243 l  226 -26 l  285 -26 l  285 0 l  133 0 l  p ef
323 0 m  323 -38 l  357 -38 l  357 0 l  323 0 l  p ef
579 -80 m  579 -67 577 -56 573 -46 ct 569 -36 564 -27 557 -20 ct 549 -13 540 -7 530 -3 ct 
519 1 506 3 492 3 ct 480 3 468 1 459 -1 ct 449 -4 441 -9 435 -14 ct 428 -19 423 -25 419 -32 ct 
415 -39 413 -47 411 -55 ct 443 -58 l  444 -54 446 -49 448 -45 ct 450 -41 453 -37 457 -33 ct 
461 -30 466 -27 472 -25 ct 478 -23 485 -22 493 -22 ct 501 -22 508 -24 515 -26 ct 
521 -29 527 -32 532 -37 ct 536 -42 540 -48 542 -55 ct 545 -62 546 -70 546 -79 ct 
546 -86 545 -93 543 -99 ct 540 -106 537 -111 532 -116 ct 528 -120 522 -124 516 -126 ct 
509 -129 502 -130 494 -130 ct 489 -130 484 -130 479 -129 ct 475 -128 471 -126 467 -125 ct 
464 -123 460 -121 457 -119 ct 454 -117 451 -115 449 -113 ct 418 -113 l  426 -243 l 
564 -243 l  564 -217 l  455 -217 l  450 -140 l  455 -144 462 -148 471 -151 ct 
479 -154 489 -155 500 -155 ct 512 -155 523 -154 533 -150 ct 542 -146 551 -141 557 -134 ct 
564 -128 569 -120 573 -110 ct 577 -101 579 -91 579 -80 ct p ef
pom
pum
9367 11806 t
16 -80 m  16 -108 l  102 -108 l  102 -80 l  16 -80 l  p ef
133 0 m  133 -26 l  195 -26 l  195 -213 l  140 -174 l  140 -204 l  197 -243 l 
226 -243 l  226 -26 l  285 -26 l  285 0 l  133 0 l  p ef
pom
pum
9076 10432 t
16 -80 m  16 -108 l  102 -108 l  102 -80 l  16 -80 l  p ef
289 -122 m  289 -99 286 -79 282 -63 ct 277 -47 271 -34 264 -25 ct 256 -15 247 -8 237 -3 ct 
226 1 215 3 204 3 ct 192 3 181 1 171 -3 ct 160 -8 152 -15 144 -24 ct 136 -34 131 -47 126 -63 ct 
122 -79 120 -99 120 -122 ct 120 -146 122 -167 126 -183 ct 131 -199 137 -212 144 -221 ct 
152 -231 161 -237 171 -241 ct 181 -245 193 -247 205 -247 ct 216 -247 227 -245 237 -241 ct 
248 -237 256 -231 264 -221 ct 272 -212 278 -199 282 -183 ct 286 -167 289 -146 289 -122 ct 
p
257 -122 m  257 -141 256 -157 254 -170 ct 251 -183 248 -193 243 -201 ct 239 -209 233 -214 227 -217 ct 
220 -220 213 -222 205 -222 ct 196 -222 188 -220 182 -217 ct 175 -214 169 -208 165 -201 ct 
160 -193 157 -183 155 -170 ct 152 -157 151 -141 151 -122 ct 151 -103 152 -88 155 -75 ct 
157 -62 160 -52 165 -44 ct 170 -36 175 -31 182 -27 ct 188 -24 196 -22 204 -22 ct 
212 -22 220 -24 226 -27 ct 233 -31 238 -36 243 -44 ct 247 -52 251 -62 253 -75 ct 
256 -88 257 -103 257 -122 ct p ef
323 0 m  323 -38 l  357 -38 l  357 0 l  323 0 l  p ef
579 -80 m  579 -67 577 -56 573 -46 ct 569 -36 564 -27 557 -20 ct 549 -13 540 -7 530 -3 ct 
519 1 506 3 492 3 ct 480 3 468 1 459 -1 ct 449 -4 441 -9 435 -14 ct 428 -19 423 -25 419 -32 ct 
415 -39 413 -47 411 -55 ct 443 -58 l  444 -54 446 -49 448 -45 ct 450 -41 453 -37 457 -33 ct 
461 -30 466 -27 472 -25 ct 478 -23 485 -22 493 -22 ct 501 -22 508 -24 515 -26 ct 
521 -29 527 -32 532 -37 ct 536 -42 540 -48 542 -55 ct 545 -62 546 -70 546 -79 ct 
546 -86 545 -93 543 -99 ct 540 -106 537 -111 532 -116 ct 528 -120 522 -124 516 -126 ct 
509 -129 502 -130 494 -130 ct 489 -130 484 -130 479 -129 ct 475 -128 471 -126 467 -125 ct 
464 -123 460 -121 457 -119 ct 454 -117 451 -115 449 -113 ct 418 -113 l  426 -243 l 
564 -243 l  564 -217 l  455 -217 l  450 -140 l  455 -144 462 -148 471 -151 ct 
479 -154 489 -155 500 -155 ct 512 -155 523 -154 533 -150 ct 542 -146 551 -141 557 -134 ct 
564 -128 569 -120 573 -110 ct 577 -101 579 -91 579 -80 ct p ef
pom
pum
9473 9057 t
183 -122 m  183 -99 180 -79 176 -63 ct 171 -47 165 -34 158 -25 ct 150 -15 141 -8 131 -3 ct 
120 1 109 3 98 3 ct 86 3 75 1 65 -3 ct 54 -8 46 -15 38 -24 ct 30 -34 25 -47 20 -63 ct 
16 -79 14 -99 14 -122 ct 14 -146 16 -167 20 -183 ct 25 -199 31 -212 38 -221 ct 
46 -231 55 -237 65 -241 ct 75 -245 87 -247 99 -247 ct 110 -247 121 -245 131 -241 ct 
142 -237 150 -231 158 -221 ct 166 -212 172 -199 176 -183 ct 180 -167 183 -146 183 -122 ct 
p
151 -122 m  151 -141 150 -157 148 -170 ct 145 -183 142 -193 137 -201 ct 133 -209 127 -214 121 -217 ct 
114 -220 107 -222 99 -222 ct 90 -222 82 -220 76 -217 ct 69 -214 63 -208 59 -201 ct 
54 -193 51 -183 49 -170 ct 46 -157 45 -141 45 -122 ct 45 -103 46 -88 49 -75 ct 
51 -62 54 -52 59 -44 ct 64 -36 69 -31 76 -27 ct 82 -24 90 -22 98 -22 ct 106 -22 114 -24 120 -27 ct 
127 -31 132 -36 137 -44 ct 141 -52 145 -62 147 -75 ct 150 -88 151 -103 151 -122 ct 
p ef
pom
pum
9182 7683 t
183 -122 m  183 -99 180 -79 176 -63 ct 171 -47 165 -34 158 -25 ct 150 -15 141 -8 131 -3 ct 
120 1 109 3 98 3 ct 86 3 75 1 65 -3 ct 54 -8 46 -15 38 -24 ct 30 -34 25 -47 20 -63 ct 
16 -79 14 -99 14 -122 ct 14 -146 16 -167 20 -183 ct 25 -199 31 -212 38 -221 ct 
46 -231 55 -237 65 -241 ct 75 -245 87 -247 99 -247 ct 110 -247 121 -245 131 -241 ct 
142 -237 150 -231 158 -221 ct 166 -212 172 -199 176 -183 ct 180 -167 183 -146 183 -122 ct 
p
151 -122 m  151 -141 150 -157 148 -170 ct 145 -183 142 -193 137 -201 ct 133 -209 127 -214 121 -217 ct 
114 -220 107 -222 99 -222 ct 90 -222 82 -220 76 -217 ct 69 -214 63 -208 59 -201 ct 
54 -193 51 -183 49 -170 ct 46 -157 45 -141 45 -122 ct 45 -103 46 -88 49 -75 ct 
51 -62 54 -52 59 -44 ct 64 -36 69 -31 76 -27 ct 82 -24 90 -22 98 -22 ct 106 -22 114 -24 120 -27 ct 
127 -31 132 -36 137 -44 ct 141 -52 145 -62 147 -75 ct 150 -88 151 -103 151 -122 ct 
p ef
217 0 m  217 -38 l  251 -38 l  251 0 l  217 0 l  p ef
473 -80 m  473 -67 471 -56 467 -46 ct 463 -36 458 -27 451 -20 ct 443 -13 434 -7 424 -3 ct 
413 1 400 3 386 3 ct 374 3 362 1 353 -1 ct 343 -4 335 -9 329 -14 ct 322 -19 317 -25 313 -32 ct 
309 -39 307 -47 305 -55 ct 337 -58 l  338 -54 340 -49 342 -45 ct 344 -41 347 -37 351 -33 ct 
355 -30 360 -27 366 -25 ct 372 -23 379 -22 387 -22 ct 395 -22 402 -24 409 -26 ct 
415 -29 421 -32 426 -37 ct 430 -42 434 -48 436 -55 ct 439 -62 440 -70 440 -79 ct 
440 -86 439 -93 437 -99 ct 434 -106 431 -111 426 -116 ct 422 -120 416 -124 410 -126 ct 
403 -129 396 -130 388 -130 ct 383 -130 378 -130 373 -129 ct 369 -128 365 -126 361 -125 ct 
358 -123 354 -121 351 -119 ct 348 -117 345 -115 343 -113 ct 312 -113 l  320 -243 l 
458 -243 l  458 -217 l  349 -217 l  344 -140 l  349 -144 356 -148 365 -151 ct 
373 -154 383 -155 394 -155 ct 406 -155 417 -154 427 -150 ct 436 -146 445 -141 451 -134 ct 
458 -128 463 -120 467 -110 ct 471 -101 473 -91 473 -80 ct p ef
pom
pum
9473 6308 t
27 0 m  27 -26 l  89 -26 l  89 -213 l  34 -174 l  34 -204 l  91 -243 l 
120 -243 l  120 -26 l  179 -26 l  179 0 l  27 0 l  p ef
pom
pum
9182 4934 t
27 0 m  27 -26 l  89 -26 l  89 -213 l  34 -174 l  34 -204 l  91 -243 l 
120 -243 l  120 -26 l  179 -26 l  179 0 l  27 0 l  p ef
217 0 m  217 -38 l  251 -38 l  251 0 l  217 0 l  p ef
473 -80 m  473 -67 471 -56 467 -46 ct 463 -36 458 -27 451 -20 ct 443 -13 434 -7 424 -3 ct 
413 1 400 3 386 3 ct 374 3 362 1 353 -1 ct 343 -4 335 -9 329 -14 ct 322 -19 317 -25 313 -32 ct 
309 -39 307 -47 305 -55 ct 337 -58 l  338 -54 340 -49 342 -45 ct 344 -41 347 -37 351 -33 ct 
355 -30 360 -27 366 -25 ct 372 -23 379 -22 387 -22 ct 395 -22 402 -24 409 -26 ct 
415 -29 421 -32 426 -37 ct 430 -42 434 -48 436 -55 ct 439 -62 440 -70 440 -79 ct 
440 -86 439 -93 437 -99 ct 434 -106 431 -111 426 -116 ct 422 -120 416 -124 410 -126 ct 
403 -129 396 -130 388 -130 ct 383 -130 378 -130 373 -129 ct 369 -128 365 -126 361 -125 ct 
358 -123 354 -121 351 -119 ct 348 -117 345 -115 343 -113 ct 312 -113 l  320 -243 l 
458 -243 l  458 -217 l  349 -217 l  344 -140 l  349 -144 356 -148 365 -151 ct 
373 -154 383 -155 394 -155 ct 406 -155 417 -154 427 -150 ct 436 -146 445 -141 451 -134 ct 
458 -128 463 -120 467 -110 ct 471 -101 473 -91 473 -80 ct p ef
pom
0 9005 t 
pom
count op_count sub {pop} repeat countdictstack dict_count sub {end} repeat b4_inc_state restore
%%PageTrailer
%%Trailer
%%EOF
